|> – R Primers for LING 343
…
Notice how each {dplyr} function takes a data frame as input and returns a data frame as output. This makes the functions easy to use in a step-by-step fashion. For example, you could:

Filter babynames to just “M” sex babies born in 2017

Select the name and n columns from the result

Arrange those columns so that the most popular names appear near the top.

m_2017 <- filter(babynames, year == 2017, sex == "M")
m_2017 <- select(m_2017, name, n)
m_2017 <- arrange(m_2017, desc(n))
m_2017

# A tibble: 14,160 × 2
   name         n
   <chr>    <int>
 1 Liam     18728
 2 Noah     18326
 3 William  14904
 4 James    14232
 5 Logan    13974
 6 Benjamin 13733
 7 Mason    13502
 8 Elijah   13268
 9 Oliver   13141
10 Jacob    13106
# ℹ 14,150 more rows
…
arrange(select(filter(babynames, year == 2017, sex == "M"), name, n), desc(n))

There is a third way to write sequences of functions: the pipe.

|>

The pipe operator |> performs an extremely simple task: it passes the result on its left into the first argument of the function on its right. Or put another way, x |> f(y) is the same as f(x, y). This piece of code punctuation makes it easy to write and read series of functions that are applied in a step by step way. For example, we can use the pipe to rewrite our code above:

babynames |> 
  filter(year == 2017, sex == "M") |> 
  select(name, n) |> 
  arrange(desc(n))

# A tibble: 14,160 × 2
   name         n
   <chr>    <int>
 1 Liam     18728
 2 Noah     18326
 3 William  14904
 4 James    14232
 5 Logan    13974
 6 Benjamin 13733
 7 Mason    13502
 8 Elijah   13268
 9 Oliver   13141
10 Jacob    13106
# ℹ 14,150 more rows
…
