mutate() – R Primers for LING 343
…
Compute the rank of each name within each year and gender. The most popular name would receive the rank 1 and so on.

Find the median rank for each name, accounting for gender. The names with the lowest median would be the names that “consistently rank among the top names from year to year.”

To do this, we will need to learn one last {dplyr} function.

mutate()

mutate() uses a data frame to compute new variables. It then returns a copy of the data frame that includes the new variables. For example, we can use mutate() to compute a percent variable for babynames. Here percent is just the prop multiplied by 100 and rounded to two decimal places.

babynames |>
  mutate(percent = round(prop * 100, 2))

# A tibble: 1,924,665 × 6
    year sex   name          n   prop percent
   <dbl> <chr> <chr>     <int>  <dbl>   <dbl>
 1  1880 F     Mary       7065 0.0724    7.24
 2  1880 F     Anna       2604 0.0267    2.67
 3  1880 F     Emma       2003 0.0205    2.05
 4  1880 F     Elizabeth  1939 0.0199    1.99
 5  1880 F     Minnie     1746 0.0179    1.79
 6  1880 F     Margaret   1578 0.0162    1.62
 7  1880 F     Ida        1472 0.0151    1.51
 8  1880 F     Alice      1414 0.0145    1.45
 9  1880 F     Bertha     1320 0.0135    1.35
10  1880 F     Sarah      1288 0.0132    1.32
# ℹ 1,924,655 more rows
…
