Long to wide – R Primers for LING 343
…
A better way to look at the data

A better way to explore this phenomena would be to directly plot a ratio of boys to girls over time. To make such a plot, you would need to compute the ratio of boys to girls for each year from 1880 to 2015:

\[
\text{ratio male} = \frac{\text{total male}}{\text{total female}}
\]

But how can we plot this data? Our current iteration of babynames places the total number of boys and girls for each year in the same column, which makes it hard to use both totals in the same calculation.

babynames |>
  group_by(year, sex) |> 
  summarise(total = sum(n))

# A tibble: 276 × 3
# Groups:   year [138]
    year sex    total
   <dbl> <chr>  <int>
 1  1880 F      90993
 2  1880 M     110491
 3  1881 F      91953
 4  1881 M     100743
 5  1882 F     107847
 6  1882 M     113686
 7  1883 F     112319
 8  1883 M     104627
 9  1884 F     129020
10  1884 M     114442
# ℹ 266 more rows

A goal

It would be easier to calculate the ratio of boys to girls if we could reshape our data to place the total number of boys born per year in one column and the total number of girls born per year in another:

# A tibble: 138 × 3
# Groups:   year [138]
    year      F      M
   <dbl>  <int>  <int>
 1  1880  90993 110491
 2  1881  91953 100743
 3  1882 107847 113686
 4  1883 112319 104627
 5  1884 129020 114442
 6  1885 133055 107799
 7  1886 144533 110784
 8  1887 145981 101413
 9  1888 178622 120851
10  1889 178366 110580
# ℹ 128 more rows
…
